wave.vcd
$date
	Thu Dec  2 10:03:21 2021
$end
$version
	Icarus Verilog
$end
$timescale
	1ps
$end
$scope module fir4TapTestBench $end
$var wire 18 ! sum_ref [17:0] $end
$var wire 1 " out_valid $end
$var wire 18 # out [17:0] $end
$var reg 1 $ clk $end
$var reg 16 % in [15:0] $end
$var reg 1 & in_valid $end
$var reg 1 ' reset $end
$var integer 32 ( i [31:0] $end
$var integer 32 ) idx [31:0] $end
$scope module firTap_inst $end
$var wire 1 $ clk $end
$var wire 16 * in [15:0] $end
$var wire 1 & in_valid $end
$var wire 1 ' reset $end
$var wire 1 " out_valid $end
$var wire 18 + out_temp_2 [17:0] $end
$var wire 17 , out_temp_1 [16:0] $end
$var wire 18 - out [17:0] $end
$var reg 4 . valid_temp [3:0] $end
$var integer 32 / i [31:0] $end
$scope module rippleCarry_inst1 $end
$var wire 1 0 carry_in $end
$var wire 16 1 in_1 [15:0] $end
$var wire 16 2 in_2 [15:0] $end
$var wire 16 3 sum [15:0] $end
$var wire 1 4 carry_out $end
$var wire 17 5 carry_int [16:0] $end
$scope begin adder_bit[0] $end
$scope module fullAdder_inst $end
$var wire 1 6 carry_in $end
$var wire 1 7 carry_out $end
$var wire 1 8 in_1 $end
$var wire 1 9 in_2 $end
$var wire 1 : sum $end
$upscope $end
$upscope $end
$scope begin adder_bit[1] $end
$scope module fullAdder_inst $end
$var wire 1 ; carry_in $end
$var wire 1 < carry_out $end
$var wire 1 = in_1 $end
$var wire 1 > in_2 $end
$var wire 1 ? sum $end
$upscope $end
$upscope $end
$scope begin adder_bit[2] $end
$scope module fullAdder_inst $end
$var wire 1 @ carry_in $end
$var wire 1 A carry_out $end
$var wire 1 B in_1 $end
$var wire 1 C in_2 $end
$var wire 1 D sum $end
$upscope $end
$upscope $end
$scope begin adder_bit[3] $end
$scope module fullAdder_inst $end
$var wire 1 E carry_in $end
$var wire 1 F carry_out $end
$var wire 1 G in_1 $end
$var wire 1 H in_2 $end
$var wire 1 I sum $end
$upscope $end
$upscope $end
$scope begin adder_bit[4] $end
$scope module fullAdder_inst $end
$var wire 1 J carry_in $end
$var wire 1 K carry_out $end
$var wire 1 L in_1 $end
$var wire 1 M in_2 $end
$var wire 1 N sum $end
$upscope $end
$upscope $end
$scope begin adder_bit[5] $end
$scope module fullAdder_inst $end
$var wire 1 O carry_in $end
$var wire 1 P carry_out $end
$var wire 1 Q in_1 $end
$var wire 1 R in_2 $end
$var wire 1 S sum $end
$upscope $end
$upscope $end
$scope begin adder_bit[6] $end
$scope module fullAdder_inst $end
$var wire 1 T carry_in $end
$var wire 1 U carry_out $end
$var wire 1 V in_1 $end
$var wire 1 W in_2 $end
$var wire 1 X sum $end
$upscope $end
$upscope $end
$scope begin adder_bit[7] $end
$scope module fullAdder_inst $end
$var wire 1 Y carry_in $end
$var wire 1 Z carry_out $end
$var wire 1 [ in_1 $end
$var wire 1 \ in_2 $end
$var wire 1 ] sum $end
$upscope $end
$upscope $end
$scope begin adder_bit[8] $end
$scope module fullAdder_inst $end
$var wire 1 ^ carry_in $end
$var wire 1 _ carry_out $end
$var wire 1 ` in_1 $end
$var wire 1 a in_2 $end
$var wire 1 b sum $end
$upscope $end
$upscope $end
$scope begin adder_bit[9] $end
$scope module fullAdder_inst $end
$var wire 1 c carry_in $end
$var wire 1 d carry_out $end
$var wire 1 e in_1 $end
$var wire 1 f in_2 $end
$var wire 1 g sum $end
$upscope $end
$upscope $end
$scope begin adder_bit[10] $end
$scope module fullAdder_inst $end
$var wire 1 h carry_in $end
$var wire 1 i carry_out $end
$var wire 1 j in_1 $end
$var wire 1 k in_2 $end
$var wire 1 l sum $end
$upscope $end
$upscope $end
$scope begin adder_bit[11] $end
$scope module fullAdder_inst $end
$var wire 1 m carry_in $end
$var wire 1 n carry_out $end
$var wire 1 o in_1 $end
$var wire 1 p in_2 $end
$var wire 1 q sum $end
$upscope $end
$upscope $end
$scope begin adder_bit[12] $end
$scope module fullAdder_inst $end
$var wire 1 r carry_in $end
$var wire 1 s carry_out $end
$var wire 1 t in_1 $end
$var wire 1 u in_2 $end
$var wire 1 v sum $end
$upscope $end
$upscope $end
$scope begin adder_bit[13] $end
$scope module fullAdder_inst $end
$var wire 1 w carry_in $end
$var wire 1 x carry_out $end
$var wire 1 y in_1 $end
$var wire 1 z in_2 $end
$var wire 1 { sum $end
$upscope $end
$upscope $end
$scope begin adder_bit[14] $end
$scope module fullAdder_inst $end
$var wire 1 | carry_in $end
$var wire 1 } carry_out $end
$var wire 1 ~ in_1 $end
$var wire 1 !" in_2 $end
$var wire 1 "" sum $end
$upscope $end
$upscope $end
$scope begin adder_bit[15] $end
$scope module fullAdder_inst $end
$var wire 1 #" carry_in $end
$var wire 1 $" carry_out $end
$var wire 1 %" in_1 $end
$var wire 1 &" in_2 $end
$var wire 1 '" sum $end
$upscope $end
$upscope $end
$upscope $end
$scope module rippleCarry_inst2 $end
$var wire 1 (" carry_in $end
$var wire 17 )" in_1 [16:0] $end
$var wire 17 *" in_2 [16:0] $end
$var wire 17 +" sum [16:0] $end
$var wire 1 ," carry_out $end
$var wire 18 -" carry_int [17:0] $end
$scope begin adder_bit[0] $end
$scope module fullAdder_inst $end
$var wire 1 ." carry_in $end
$var wire 1 /" carry_out $end
$var wire 1 0" in_1 $end
$var wire 1 1" in_2 $end
$var wire 1 2" sum $end
$upscope $end
$upscope $end
$scope begin adder_bit[1] $end
$scope module fullAdder_inst $end
$var wire 1 3" carry_in $end
$var wire 1 4" carry_out $end
$var wire 1 5" in_1 $end
$var wire 1 6" in_2 $end
$var wire 1 7" sum $end
$upscope $end
$upscope $end
$scope begin adder_bit[2] $end
$scope module fullAdder_inst $end
$var wire 1 8" carry_in $end
$var wire 1 9" carry_out $end
$var wire 1 :" in_1 $end
$var wire 1 ;" in_2 $end
$var wire 1 <" sum $end
$upscope $end
$upscope $end
$scope begin adder_bit[3] $end
$scope module fullAdder_inst $end
$var wire 1 =" carry_in $end
$var wire 1 >" carry_out $end
$var wire 1 ?" in_1 $end
$var wire 1 @" in_2 $end
$var wire 1 A" sum $end
$upscope $end
$upscope $end
$scope begin adder_bit[4] $end
$scope module fullAdder_inst $end
$var wire 1 B" carry_in $end
$var wire 1 C" carry_out $end
$var wire 1 D" in_1 $end
$var wire 1 E" in_2 $end
$var wire 1 F" sum $end
$upscope $end
$upscope $end
$scope begin adder_bit[5] $end
$scope module fullAdder_inst $end
$var wire 1 G" carry_in $end
$var wire 1 H" carry_out $end
$var wire 1 I" in_1 $end
$var wire 1 J" in_2 $end
$var wire 1 K" sum $end
$upscope $end
$upscope $end
$scope begin adder_bit[6] $end
$scope module fullAdder_inst $end
$var wire 1 L" carry_in $end
$var wire 1 M" carry_out $end
$var wire 1 N" in_1 $end
$var wire 1 O" in_2 $end
$var wire 1 P" sum $end
$upscope $end
$upscope $end
$scope begin adder_bit[7] $end
$scope module fullAdder_inst $end
$var wire 1 Q" carry_in $end
$var wire 1 R" carry_out $end
$var wire 1 S" in_1 $end
$var wire 1 T" in_2 $end
$var wire 1 U" sum $end
$upscope $end
$upscope $end
$scope begin adder_bit[8] $end
$scope module fullAdder_inst $end
$var wire 1 V" carry_in $end
$var wire 1 W" carry_out $end
$var wire 1 X" in_1 $end
$var wire 1 Y" in_2 $end
$var wire 1 Z" sum $end
$upscope $end
$upscope $end
$scope begin adder_bit[9] $end
$scope module fullAdder_inst $end
$var wire 1 [" carry_in $end
$var wire 1 \" carry_out $end
$var wire 1 ]" in_1 $end
$var wire 1 ^" in_2 $end
$var wire 1 _" sum $end
$upscope $end
$upscope $end
$scope begin adder_bit[10] $end
$scope module fullAdder_inst $end
$var wire 1 `" carry_in $end
$var wire 1 a" carry_out $end
$var wire 1 b" in_1 $end
$var wire 1 c" in_2 $end
$var wire 1 d" sum $end
$upscope $end
$upscope $end
$scope begin adder_bit[11] $end
$scope module fullAdder_inst $end
$var wire 1 e" carry_in $end
$var wire 1 f" carry_out $end
$var wire 1 g" in_1 $end
$var wire 1 h" in_2 $end
$var wire 1 i" sum $end
$upscope $end
$upscope $end
$scope begin adder_bit[12] $end
$scope module fullAdder_inst $end
$var wire 1 j" carry_in $end
$var wire 1 k" carry_out $end
$var wire 1 l" in_1 $end
$var wire 1 m" in_2 $end
$var wire 1 n" sum $end
$upscope $end
$upscope $end
$scope begin adder_bit[13] $end
$scope module fullAdder_inst $end
$var wire 1 o" carry_in $end
$var wire 1 p" carry_out $end
$var wire 1 q" in_1 $end
$var wire 1 r" in_2 $end
$var wire 1 s" sum $end
$upscope $end
$upscope $end
$scope begin adder_bit[14] $end
$scope module fullAdder_inst $end
$var wire 1 t" carry_in $end
$var wire 1 u" carry_out $end
$var wire 1 v" in_1 $end
$var wire 1 w" in_2 $end
$var wire 1 x" sum $end
$upscope $end
$upscope $end
$scope begin adder_bit[15] $end
$scope module fullAdder_inst $end
$var wire 1 y" carry_in $end
$var wire 1 z" carry_out $end
$var wire 1 {" in_1 $end
$var wire 1 |" in_2 $end
$var wire 1 }" sum $end
$upscope $end
$upscope $end
$scope begin adder_bit[16] $end
$scope module fullAdder_inst $end
$var wire 1 ~" carry_in $end
$var wire 1 !# carry_out $end
$var wire 1 "# in_1 $end
$var wire 1 ## in_2 $end
$var wire 1 $# sum $end
$upscope $end
$upscope $end
$upscope $end
$scope module rippleCarry_inst3 $end
$var wire 1 %# carry_in $end
$var wire 18 &# in_1 [17:0] $end
$var wire 18 '# in_2 [17:0] $end
$var wire 18 (# sum [17:0] $end
$var wire 1 )# carry_out $end
$var wire 19 *# carry_int [18:0] $end
$scope begin adder_bit[0] $end
$scope module fullAdder_inst $end
$var wire 1 +# carry_in $end
$var wire 1 ,# carry_out $end
$var wire 1 -# in_1 $end
$var wire 1 .# in_2 $end
$var wire 1 /# sum $end
$upscope $end
$upscope $end
$scope begin adder_bit[1] $end
$scope module fullAdder_inst $end
$var wire 1 0# carry_in $end
$var wire 1 1# carry_out $end
$var wire 1 2# in_1 $end
$var wire 1 3# in_2 $end
$var wire 1 4# sum $end
$upscope $end
$upscope $end
$scope begin adder_bit[2] $end
$scope module fullAdder_inst $end
$var wire 1 5# carry_in $end
$var wire 1 6# carry_out $end
$var wire 1 7# in_1 $end
$var wire 1 8# in_2 $end
$var wire 1 9# sum $end
$upscope $end
$upscope $end
$scope begin adder_bit[3] $end
$scope module fullAdder_inst $end
$var wire 1 :# carry_in $end
$var wire 1 ;# carry_out $end
$var wire 1 <# in_1 $end
$var wire 1 =# in_2 $end
$var wire 1 ># sum $end
$upscope $end
$upscope $end
$scope begin adder_bit[4] $end
$scope module fullAdder_inst $end
$var wire 1 ?# carry_in $end
$var wire 1 @# carry_out $end
$var wire 1 A# in_1 $end
$var wire 1 B# in_2 $end
$var wire 1 C# sum $end
$upscope $end
$upscope $end
$scope begin adder_bit[5] $end
$scope module fullAdder_inst $end
$var wire 1 D# carry_in $end
$var wire 1 E# carry_out $end
$var wire 1 F# in_1 $end
$var wire 1 G# in_2 $end
$var wire 1 H# sum $end
$upscope $end
$upscope $end
$scope begin adder_bit[6] $end
$scope module fullAdder_inst $end
$var wire 1 I# carry_in $end
$var wire 1 J# carry_out $end
$var wire 1 K# in_1 $end
$var wire 1 L# in_2 $end
$var wire 1 M# sum $end
$upscope $end
$upscope $end
$scope begin adder_bit[7] $end
$scope module fullAdder_inst $end
$var wire 1 N# carry_in $end
$var wire 1 O# carry_out $end
$var wire 1 P# in_1 $end
$var wire 1 Q# in_2 $end
$var wire 1 R# sum $end
$upscope $end
$upscope $end
$scope begin adder_bit[8] $end
$scope module fullAdder_inst $end
$var wire 1 S# carry_in $end
$var wire 1 T# carry_out $end
$var wire 1 U# in_1 $end
$var wire 1 V# in_2 $end
$var wire 1 W# sum $end
$upscope $end
$upscope $end
$scope begin adder_bit[9] $end
$scope module fullAdder_inst $end
$var wire 1 X# carry_in $end
$var wire 1 Y# carry_out $end
$var wire 1 Z# in_1 $end
$var wire 1 [# in_2 $end
$var wire 1 \# sum $end
$upscope $end
$upscope $end
$scope begin adder_bit[10] $end
$scope module fullAdder_inst $end
$var wire 1 ]# carry_in $end
$var wire 1 ^# carry_out $end
$var wire 1 _# in_1 $end
$var wire 1 `# in_2 $end
$var wire 1 a# sum $end
$upscope $end
$upscope $end
$scope begin adder_bit[11] $end
$scope module fullAdder_inst $end
$var wire 1 b# carry_in $end
$var wire 1 c# carry_out $end
$var wire 1 d# in_1 $end
$var wire 1 e# in_2 $end
$var wire 1 f# sum $end
$upscope $end
$upscope $end
$scope begin adder_bit[12] $end
$scope module fullAdder_inst $end
$var wire 1 g# carry_in $end
$var wire 1 h# carry_out $end
$var wire 1 i# in_1 $end
$var wire 1 j# in_2 $end
$var wire 1 k# sum $end
$upscope $end
$upscope $end
$scope begin adder_bit[13] $end
$scope module fullAdder_inst $end
$var wire 1 l# carry_in $end
$var wire 1 m# carry_out $end
$var wire 1 n# in_1 $end
$var wire 1 o# in_2 $end
$var wire 1 p# sum $end
$upscope $end
$upscope $end
$scope begin adder_bit[14] $end
$scope module fullAdder_inst $end
$var wire 1 q# carry_in $end
$var wire 1 r# carry_out $end
$var wire 1 s# in_1 $end
$var wire 1 t# in_2 $end
$var wire 1 u# sum $end
$upscope $end
$upscope $end
$scope begin adder_bit[15] $end
$scope module fullAdder_inst $end
$var wire 1 v# carry_in $end
$var wire 1 w# carry_out $end
$var wire 1 x# in_1 $end
$var wire 1 y# in_2 $end
$var wire 1 z# sum $end
$upscope $end
$upscope $end
$scope begin adder_bit[16] $end
$scope module fullAdder_inst $end
$var wire 1 {# carry_in $end
$var wire 1 |# carry_out $end
$var wire 1 }# in_1 $end
$var wire 1 ~# in_2 $end
$var wire 1 !$ sum $end
$upscope $end
$upscope $end
$scope begin adder_bit[17] $end
$scope module fullAdder_inst $end
$var wire 1 "$ carry_in $end
$var wire 1 #$ carry_out $end
$var wire 1 $$ in_1 $end
$var wire 1 %$ in_2 $end
$var wire 1 &$ sum $end
$upscope $end
$upscope $end
$upscope $end
$scope begin input_delay $end
$upscope $end
$upscope $end
$scope begin in_delay $end
$upscope $end
$upscope $end
$scope module fir4TapTestBench $end
$var reg 16 '$ \in_temp[0] [15:0] $end
$upscope $end
$scope module fir4TapTestBench $end
$scope module firTap_inst $end
$var reg 16 ($ \in_temp[0] [15:0] $end
$upscope $end
$upscope $end
$scope module fir4TapTestBench $end
$var reg 16 )$ \in_temp[1] [15:0] $end
$upscope $end
$scope module fir4TapTestBench $end
$scope module firTap_inst $end
$var reg 16 *$ \in_temp[1] [15:0] $end
$upscope $end
$upscope $end
$scope module fir4TapTestBench $end
$var reg 16 +$ \in_temp[2] [15:0] $end
$upscope $end
$scope module fir4TapTestBench $end
$scope module firTap_inst $end
$var reg 16 ,$ \in_temp[2] [15:0] $end
$upscope $end
$upscope $end
$scope module fir4TapTestBench $end
$var reg 16 -$ \in_temp[3] [15:0] $end
$upscope $end
$scope module fir4TapTestBench $end
$scope module firTap_inst $end
$var reg 16 .$ \in_temp[3] [15:0] $end
$upscope $end
$upscope $end
$enddefinitions $end
#0
$dumpvars
bx .$
bx -$
bx ,$
bx +$
bx *$
bx )$
bx ($
bx '$
x&$
0%$
x$$
x#$
x"$
x!$
0~#
x}#
x|#
x{#
xz#
xy#
xx#
xw#
xv#
xu#
xt#
xs#
xr#
xq#
xp#
xo#
xn#
xm#
xl#
xk#
xj#
xi#
xh#
xg#
xf#
xe#
xd#
xc#
xb#
xa#
x`#
x_#
x^#
x]#
x\#
x[#
xZ#
xY#
xX#
xW#
xV#
xU#
xT#
xS#
xR#
xQ#
xP#
xO#
xN#
xM#
xL#
xK#
xJ#
xI#
xH#
xG#
xF#
xE#
xD#
xC#
xB#
xA#
x@#
x?#
x>#
x=#
x<#
x;#
x:#
x9#
x8#
x7#
x6#
x5#
x4#
x3#
x2#
x1#
x0#
x/#
x.#
x-#
x,#
0+#
bx0 *#
x)#
bx (#
b0xxxxxxxxxxxxxxxx '#
bx &#
0%#
x$#
x##
0"#
x!#
x~"
x}"
x|"
x{"
xz"
xy"
xx"
xw"
xv"
xu"
xt"
xs"
xr"
xq"
xp"
xo"
xn"
xm"
xl"
xk"
xj"
xi"
xh"
xg"
xf"
xe"
xd"
xc"
xb"
xa"
x`"
x_"
x^"
x]"
x\"
x["
xZ"
xY"
xX"
xW"
xV"
xU"
xT"
xS"
xR"
xQ"
xP"
xO"
xN"
xM"
xL"
xK"
xJ"
xI"
xH"
xG"
xF"
xE"
xD"
xC"
xB"
xA"
x@"
x?"
x>"
x="
x<"
x;"
x:"
x9"
x8"
x7"
x6"
x5"
x4"
x3"
x2"
x1"
x0"
x/"
0."
bx0 -"
x,"
bx +"
bx *"
b0xxxxxxxxxxxxxxxx )"
0("
x'"
x&"
x%"
x$"
x#"
x""
x!"
x~
x}
x|
x{
xz
xy
xx
xw
xv
xu
xt
xs
xr
xq
xp
xo
xn
xm
xl
xk
xj
xi
xh
xg
xf
xe
xd
xc
xb
xa
x`
x_
x^
x]
x\
x[
xZ
xY
xX
xW
xV
xU
xT
xS
xR
xQ
xP
xO
xN
xM
xL
xK
xJ
xI
xH
xG
xF
xE
xD
xC
xB
xA
x@
x?
x>
x=
x<
x;
x:
x9
x8
x7
06
bx0 5
x4
bx 3
bx 2
bx 1
00
bx /
bx .
bx -
bx ,
bx +
bx *
b100 )
bx (
0'
0&
bx %
0$
bx #
x"
bx !
$end
#500
0)#
b0xxxxxxxxxxxxxxxxx0 *#
0#$
0$$
b0xxxxxxxxxxxxxxxxx +
b0xxxxxxxxxxxxxxxxx &#
0,"
b0xxxxxxxxxxxxxxxx0 -"
0!#
0##
b0xxxxxxxxxxxxxxxx ,
b0xxxxxxxxxxxxxxxx *"
04
0$"
0#"
0}
0|
0x
0w
0s
0r
0n
0m
0i
0h
0d
0c
0_
0^
0Z
0Y
0U
0T
0P
0O
0K
0J
0F
0E
0A
0@
0<
0;
b0 5
07
08
0=
0B
0G
0L
0Q
0V
0[
0`
0e
0j
0o
0t
0y
0~
0%"
bx .$
bx ,$
bx *$
bx0 .
b0 ($
b0 1
bx -$
bx +$
bx )$
bx '$
b100 /
b100 (
1$
#1000
0$
#1500
b0xxxxxxxxxxxxxxxxx #
b0xxxxxxxxxxxxxxxxx -
b0xxxxxxxxxxxxxxxxx (#
0&$
0"$
b0xxxxxxxxxxxxxxxx0 *#
0|#
0}#
b0xxxxxxxxxxxxxxxx +
b0xxxxxxxxxxxxxxxx &#
b0xxxxxxxxxxxxxxxx +"
0$#
0~"
0z"
0y"
0u"
0t"
0p"
0o"
0k"
0j"
0f"
0e"
0a"
0`"
0\"
0["
0W"
0V"
0R"
0Q"
0M"
0L"
0H"
0G"
0C"
0B"
0>"
0="
09"
08"
04"
03"
b0 -"
0/"
01"
06"
0;"
0@"
0E"
0J"
0O"
0T"
0Y"
0^"
0c"
0h"
0m"
0r"
0w"
0|"
0:
0?
0D
0I
0N
0S
0X
0]
0b
0g
0l
0q
0v
0{
0""
b0 ,
b0 *"
b0 3
0'"
09
0>
0C
0H
0M
0R
0W
0\
0a
0f
0k
0p
0u
0z
0!"
0&"
bx .$
bx ,$
bx00 .
b0 *$
b0 2
b0 ($
bx -$
bx +$
bx )$
bx '$
b100 /
b100 (
1$
#2000
0$
1'
#2500
bx -$
bx +$
bx )$
bx '$
09#
0>#
0C#
0H#
0M#
0R#
0W#
0\#
0a#
0f#
0k#
0p#
0u#
0z#
0!$
05#
0:#
0?#
0D#
0I#
0N#
0S#
0X#
0]#
0b#
0g#
0l#
0q#
0v#
0{#
0/#
b0 #
b0 -
b0 (#
04#
01#
06#
0;#
0@#
0E#
0J#
0O#
0T#
0Y#
0^#
0c#
0h#
0m#
0r#
0w#
00#
b0 *#
0,#
0-#
02#
07#
0<#
0A#
0F#
0K#
0P#
0U#
0Z#
0_#
0d#
0i#
0n#
0s#
0x#
02"
07"
0<"
0A"
0F"
0K"
0P"
0U"
0Z"
0_"
0d"
0i"
0n"
0s"
0x"
b0 +
b0 &#
b0 +"
0}"
0.#
03#
08#
0=#
0B#
0G#
0L#
0Q#
0V#
0[#
0`#
0e#
0j#
0o#
0t#
0y#
00"
05"
0:"
0?"
0D"
0I"
0N"
0S"
0X"
0]"
0b"
0g"
0l"
0q"
0v"
0{"
b0 .$
b0 '#
b0 ,$
b0 )"
b0 *$
b0 ($
b100 /
b100 (
1$
#3000
0$
0'
#3500
b0 .$
bx000 .
b0 ,$
b0 *$
b0 ($
bx -$
bx +$
bx )$
bx '$
b100 /
b100 (
1$
#4000
0$
1&
b11010100100100 %
b11010100100100 *
#4500
19#
1H#
1W#
1a#
1k#
b11010100100100 #
b11010100100100 -
b11010100100100 (#
1p#
17#
1F#
1U#
1_#
1i#
1n#
1<"
1K"
1Z"
1d"
1n"
b11010100100100 +
b11010100100100 &#
b11010100100100 +"
1s"
1;"
1J"
1Y"
1c"
1m"
1r"
1D
1S
1b
1l
1v
b11010100100100 ,
b11010100100100 *"
b11010100100100 3
1{
0"
1B
1Q
1`
1j
1t
1y
b0 .$
b0 ,$
b0 *$
b1 .
b11010100100100 ($
b11010100100100 1
bx -$
bx +$
bx )$
b11010100100100 '$
b100 /
b100 (
1$
#5000
0$
b101111010000001 %
b101111010000001 *
#5500
1z#
1x#
1}"
1|"
1'"
0p#
1#"
1}
0n#
0a#
1k#
0s"
1|
1/#
1R#
1\#
0f#
b1001001110100101 #
b1001001110100101 -
b1001001110100101 (#
0u#
1r
1x
0_#
1n
1i#
0r"
1-#
1P#
1Z#
0d#
0s#
0d"
1n"
0{
12"
1U"
1_"
0i"
b1001001110100101 +
b1001001110100101 &#
b1001001110100101 +"
0x"
1m
1w
0c"
1i
1m"
b1111100000000000 5
1s
11"
1T"
1^"
0h"
0w"
0l
1v
1:
1]
1g
0q
b1001001110100101 ,
b1001001110100101 *"
b1001001110100101 3
0""
1C
1R
1a
1k
1u
1z
18
0B
0Q
1[
0`
1e
1o
0y
1~
b0 .$
b0 ,$
b11 .
b11010100100100 *$
b11010100100100 2
b101111010000001 ($
b101111010000001 1
bx -$
bx +$
b11010100100100 )$
b101111010000001 '$
b100 /
b100 (
1$
#6000
0$
b1101011000001001 %
b1101011000001001 *
#6500
1f#
0C#
1d#
14#
1>#
0\#
1i"
0A#
1e"
0F"
12#
1<#
0Z#
1a"
1!$
0B"
0M#
0/#
17"
1A"
0_"
1u#
0z#
0>"
1t"
1}#
0K#
0-#
16"
1c"
1p"
1s#
0x#
1$#
19#
1H#
0P"
1W#
0a#
0k#
b10110100110101110 #
b10110100110101110 -
b10110100110101110 (#
1p#
02"
1?
1l
1x"
1m"
0}"
0="
0L"
0["
1o"
1;
1h
0|
1v
1##
17#
09"
1F#
0H"
1U#
0W"
0_#
0i#
b110100000000000 -"
1k"
1n#
01"
17
0;"
0J"
0Y"
0^"
1d
1r"
0x
0w"
1@"
1r
0|"
14
1<"
1K"
1Z"
0d"
0n"
b10110100110101110 +
b10110100110101110 &#
b10110100110101110 +"
1s"
0:
0D
0S
0b
0g
1{
0""
1I
1n
b10011010010001010 ,
b10011010010001010 *"
b11010010001010 3
0'"
b11011110000000010 5
1$"
1:"
1I"
1X"
1b"
1l"
1q"
19
0C
0R
1\
0a
1f
1p
0z
1!"
1G
0[
0o
1%"
b0 .$
b111 .
b11010100100100 ,$
b11010100100100 )"
b101111010000001 *$
b101111010000001 2
b1101011000001001 ($
b1101011000001001 1
bx -$
b11010100100100 +$
b101111010000001 )$
b1101011000001001 '$
b100 /
b100 (
1$
#7000
0$
b101011001100011 %
b101011001100011 *
#7500
1g#
1c#
1S#
1b#
1O#
1^#
1l#
1N#
1!$
1C#
0\#
1h#
1u#
04#
1J#
1?#
1]#
1z#
1}#
1;#
1Y#
0m"
02#
1K#
1$#
0>#
0M#
1/#
0R#
0f#
0i#
1x#
0v
07"
1;"
1P"
1:#
1I#
1X#
1q#
0V"
0n"
1}"
0r
1D
1##
16#
1E#
1T#
b111111111011000 *#
1m#
1-#
17#
1F#
1P#
0R"
0U#
1Z#
1d#
1j"
0n#
0s#
1y"
0T"
1h"
0n
06"
1@
1J"
1O"
14
09#
0H#
0W#
0a#
0k#
b11100000000010001 #
b11100000000010001 -
b11100000000010001 (#
0p#
12"
1<"
1K"
1U"
0Z"
1_"
1i"
1f"
0s"
b11000101011101101 +
b11000101011101101 &#
b11000101011101101 +"
0x"
b1111100000000000 -"
1u"
0]
1q
0?
1<
1S
b10010110001101100 ,
b10010110001101100 *"
b10110001101100 3
1X
b11010110000000110 5
1$"
1"
18#
1G#
1V#
1`#
1j#
1o#
10"
0:"
0I"
1S"
0X"
1]"
1g"
0q"
1v"
1H
0\
0p
1&"
1=
0G
1Q
1V
0%"
b1111 .
b11010100100100 .$
b11010100100100 '#
b101111010000001 ,$
b101111010000001 )"
b1101011000001001 *$
b1101011000001001 2
b101011001100011 ($
b101011001100011 1
b11010100100100 -$
b11100000000010001 !
b101111010000001 +$
b1101011000001001 )$
b101011001100011 '$
b100 /
b100 (
1$
#8000
0$
b111101100001101 %
b111101100001101 *
#8500
0Q"
0M"
1K#
1P"
0L"
0H"
1F#
1K"
1"$
0G"
0S#
1|#
0C"
0O#
1&$
1>#
0k#
1{#
0$$
0z#
1w#
1E"
1a#
0i#
0s#
0N#
0!$
0,"
1N
0e"
0j"
0n"
0t"
0x"
0J#
0?#
1A#
0!#
07#
1J
1U#
1_#
0a"
0f"
1n#
0p"
14#
1M#
0;#
1F"
1}#
0##
0<"
0@"
1F
1Z"
1d"
1m"
1s"
1w"
10#
0:#
0I#
0X#
1q#
1v#
0B"
1$#
04
0I
1v
1""
1,#
06#
0E#
0T#
1m#
b111111110000000010 *#
1r#
1<#
0>"
0P#
0d#
1x#
1~"
1|"
0$"
1@
0;"
1E
1Y"
0c"
0h"
1r
0r"
1|
0/#
09#
1H#
1R#
1W#
0\#
0f#
0p#
b100000010111111010 #
b100000010111111010 -
b100000010111111010 (#
0u#
1A"
0U"
0i"
b11010011101111001 +
b11010011101111001 &#
b11010011101111001 +"
1}"
b11010000000000000 -"
1z"
1'"
1<
0D
1A
1b
0l
0q
1n
b1101000101110000 ,
b1101000101110000 *"
b1101000101110000 3
0{
b1111110000011110 5
1x
1.#
08#
0G#
1Q#
0V#
1[#
1e#
0o#
1t#
1?"
0S"
0g"
1{"
1>
0H
1R
1W
0&"
0=
1B
1G
0Q
0V
1`
0j
1o
1y
b101111010000001 .$
b101111010000001 '#
b1101011000001001 ,$
b1101011000001001 )"
b101011001100011 *$
b101011001100011 2
b111101100001101 ($
b111101100001101 1
b101111010000001 -$
b1101011000001001 +$
b101011001100011 )$
b111101100001101 '$
b100000010111111010 !
b100 /
b100 (
1$
#9000
0$
b1001100110001101 %
b1001100110001101 *
#9500
1&$
1S#
1O#
1b#
1N#
1^#
1J#
1P#
0)#
1q#
1U"
0#$
1I#
1m#
19#
1]#
1"$
1E#
0p#
0:#
1Y#
0!$
1|#
0$$
1l#
0V"
06#
1W#
0a#
0\#
1u#
0,"
1D#
1h#
0R"
18"
1e"
0`"
1#"
0y"
0~"
1}#
0!#
1@#
05#
14"
17#
0U#
0_#
1a"
1d#
1Z#
0\"
1}
1s#
0u"
0z"
1$#
0C#
0k#
14#
01#
0H#
0M#
1<"
0Z"
0d"
1i"
1_"
1x"
1?#
1g#
0L"
0Q"
0@
1c
0m
1h
1##
1;#
b111111110111110010 *#
1c#
02#
1<#
1F#
0H"
1K#
b10100000000100 -"
0M"
0x#
16"
0<
0;"
1@"
0J"
0O"
0Y"
1_
1c"
0i
0h"
1T"
0^"
1d
1|
0w"
0|"
14
0>#
0R#
0f#
b100100000100000110 #
b100100000100000110 -
b100100000100000110 (#
0z#
07"
1A"
1K"
1P"
b10110101011111101 +
b10110101011111101 &#
b10110101011111101 +"
0}"
1?
0D
1I
0S
0X
0b
1l
0q
1]
0g
1x
0""
b10001010010011010 ,
b10001010010011010 *"
b1010010011010 3
0'"
b11111011000011010 5
1$"
1=#
0Q#
0e#
1y#
15"
0?"
1I"
1N"
0{"
0>
1C
1H
0R
0W
1a
0k
1p
1z
1[
0e
0y
0~
1%"
b1101011000001001 .$
b1101011000001001 '#
b101011001100011 ,$
b101011001100011 )"
b111101100001101 *$
b111101100001101 2
b1001100110001101 ($
b1001100110001101 1
b1101011000001001 -$
b101011001100011 +$
b111101100001101 )$
b1001100110001101 '$
b100100000100000110 !
b100 /
b100 (
1$
#10000
0$
b1000010001100101 %
b1000010001100101 *
