wave.vcd
$date
	Thu Dec  2 09:23:22 2021
$end
$version
	Icarus Verilog
$end
$timescale
	1ps
$end
$scope module fir4TapTestBench $end
$var wire 18 ! sum_ref [17:0] $end
$var wire 1 " out_valid $end
$var wire 18 # out [17:0] $end
$var reg 1 $ clk $end
$var reg 16 % in [15:0] $end
$var reg 1 & in_valid $end
$var reg 1 ' reset $end
$var integer 32 ( i [31:0] $end
$var integer 32 ) idx [31:0] $end
$scope module firTap_inst $end
$var wire 1 $ clk $end
$var wire 16 * in [15:0] $end
$var wire 1 & in_valid $end
$var wire 1 ' reset $end
$var wire 1 " out_valid $end
$var wire 17 + out_temp_1 [16:0] $end
$var wire 18 , out [17:0] $end
$var wire 1 - carry_out_temp $end
$var reg 4 . valid_temp [3:0] $end
$var integer 32 / i [31:0] $end
$scope module carrySave_inst1 $end
$var wire 16 0 carry_in [15:0] $end
$var wire 16 1 in_1 [15:0] $end
$var wire 16 2 in_2 [15:0] $end
$var wire 16 3 sum_int [15:0] $end
$var wire 17 4 sum [16:0] $end
$var wire 1 - carry_out $end
$var wire 16 5 carry_int [15:0] $end
$scope begin adder_bit[0] $end
$scope module fullAdder_inst $end
$var wire 1 6 carry_in $end
$var wire 1 7 carry_out $end
$var wire 1 8 in_1 $end
$var wire 1 9 in_2 $end
$var wire 1 : sum $end
$upscope $end
$upscope $end
$scope begin adder_bit[1] $end
$scope module fullAdder_inst $end
$var wire 1 ; carry_in $end
$var wire 1 < carry_out $end
$var wire 1 = in_1 $end
$var wire 1 > in_2 $end
$var wire 1 ? sum $end
$upscope $end
$upscope $end
$scope begin adder_bit[2] $end
$scope module fullAdder_inst $end
$var wire 1 @ carry_in $end
$var wire 1 A carry_out $end
$var wire 1 B in_1 $end
$var wire 1 C in_2 $end
$var wire 1 D sum $end
$upscope $end
$upscope $end
$scope begin adder_bit[3] $end
$scope module fullAdder_inst $end
$var wire 1 E carry_in $end
$var wire 1 F carry_out $end
$var wire 1 G in_1 $end
$var wire 1 H in_2 $end
$var wire 1 I sum $end
$upscope $end
$upscope $end
$scope begin adder_bit[4] $end
$scope module fullAdder_inst $end
$var wire 1 J carry_in $end
$var wire 1 K carry_out $end
$var wire 1 L in_1 $end
$var wire 1 M in_2 $end
$var wire 1 N sum $end
$upscope $end
$upscope $end
$scope begin adder_bit[5] $end
$scope module fullAdder_inst $end
$var wire 1 O carry_in $end
$var wire 1 P carry_out $end
$var wire 1 Q in_1 $end
$var wire 1 R in_2 $end
$var wire 1 S sum $end
$upscope $end
$upscope $end
$scope begin adder_bit[6] $end
$scope module fullAdder_inst $end
$var wire 1 T carry_in $end
$var wire 1 U carry_out $end
$var wire 1 V in_1 $end
$var wire 1 W in_2 $end
$var wire 1 X sum $end
$upscope $end
$upscope $end
$scope begin adder_bit[7] $end
$scope module fullAdder_inst $end
$var wire 1 Y carry_in $end
$var wire 1 Z carry_out $end
$var wire 1 [ in_1 $end
$var wire 1 \ in_2 $end
$var wire 1 ] sum $end
$upscope $end
$upscope $end
$scope begin adder_bit[8] $end
$scope module fullAdder_inst $end
$var wire 1 ^ carry_in $end
$var wire 1 _ carry_out $end
$var wire 1 ` in_1 $end
$var wire 1 a in_2 $end
$var wire 1 b sum $end
$upscope $end
$upscope $end
$scope begin adder_bit[9] $end
$scope module fullAdder_inst $end
$var wire 1 c carry_in $end
$var wire 1 d carry_out $end
$var wire 1 e in_1 $end
$var wire 1 f in_2 $end
$var wire 1 g sum $end
$upscope $end
$upscope $end
$scope begin adder_bit[10] $end
$scope module fullAdder_inst $end
$var wire 1 h carry_in $end
$var wire 1 i carry_out $end
$var wire 1 j in_1 $end
$var wire 1 k in_2 $end
$var wire 1 l sum $end
$upscope $end
$upscope $end
$scope begin adder_bit[11] $end
$scope module fullAdder_inst $end
$var wire 1 m carry_in $end
$var wire 1 n carry_out $end
$var wire 1 o in_1 $end
$var wire 1 p in_2 $end
$var wire 1 q sum $end
$upscope $end
$upscope $end
$scope begin adder_bit[12] $end
$scope module fullAdder_inst $end
$var wire 1 r carry_in $end
$var wire 1 s carry_out $end
$var wire 1 t in_1 $end
$var wire 1 u in_2 $end
$var wire 1 v sum $end
$upscope $end
$upscope $end
$scope begin adder_bit[13] $end
$scope module fullAdder_inst $end
$var wire 1 w carry_in $end
$var wire 1 x carry_out $end
$var wire 1 y in_1 $end
$var wire 1 z in_2 $end
$var wire 1 { sum $end
$upscope $end
$upscope $end
$scope begin adder_bit[14] $end
$scope module fullAdder_inst $end
$var wire 1 | carry_in $end
$var wire 1 } carry_out $end
$var wire 1 ~ in_1 $end
$var wire 1 !" in_2 $end
$var wire 1 "" sum $end
$upscope $end
$upscope $end
$scope begin adder_bit[15] $end
$scope module fullAdder_inst $end
$var wire 1 #" carry_in $end
$var wire 1 $" carry_out $end
$var wire 1 %" in_1 $end
$var wire 1 &" in_2 $end
$var wire 1 '" sum $end
$upscope $end
$upscope $end
$scope module rippleCarry_inst $end
$var wire 1 (" carry_in $end
$var wire 16 )" in_1 [15:0] $end
$var wire 16 *" in_2 [15:0] $end
$var wire 16 +" sum [15:0] $end
$var wire 1 - carry_out $end
$var wire 17 ," carry_int [16:0] $end
$scope begin adder_bit[0] $end
$scope module fullAdder_inst $end
$var wire 1 -" carry_in $end
$var wire 1 ." carry_out $end
$var wire 1 /" in_1 $end
$var wire 1 0" in_2 $end
$var wire 1 1" sum $end
$upscope $end
$upscope $end
$scope begin adder_bit[1] $end
$scope module fullAdder_inst $end
$var wire 1 2" carry_in $end
$var wire 1 3" carry_out $end
$var wire 1 4" in_1 $end
$var wire 1 5" in_2 $end
$var wire 1 6" sum $end
$upscope $end
$upscope $end
$scope begin adder_bit[2] $end
$scope module fullAdder_inst $end
$var wire 1 7" carry_in $end
$var wire 1 8" carry_out $end
$var wire 1 9" in_1 $end
$var wire 1 :" in_2 $end
$var wire 1 ;" sum $end
$upscope $end
$upscope $end
$scope begin adder_bit[3] $end
$scope module fullAdder_inst $end
$var wire 1 <" carry_in $end
$var wire 1 =" carry_out $end
$var wire 1 >" in_1 $end
$var wire 1 ?" in_2 $end
$var wire 1 @" sum $end
$upscope $end
$upscope $end
$scope begin adder_bit[4] $end
$scope module fullAdder_inst $end
$var wire 1 A" carry_in $end
$var wire 1 B" carry_out $end
$var wire 1 C" in_1 $end
$var wire 1 D" in_2 $end
$var wire 1 E" sum $end
$upscope $end
$upscope $end
$scope begin adder_bit[5] $end
$scope module fullAdder_inst $end
$var wire 1 F" carry_in $end
$var wire 1 G" carry_out $end
$var wire 1 H" in_1 $end
$var wire 1 I" in_2 $end
$var wire 1 J" sum $end
$upscope $end
$upscope $end
$scope begin adder_bit[6] $end
$scope module fullAdder_inst $end
$var wire 1 K" carry_in $end
$var wire 1 L" carry_out $end
$var wire 1 M" in_1 $end
$var wire 1 N" in_2 $end
$var wire 1 O" sum $end
$upscope $end
$upscope $end
$scope begin adder_bit[7] $end
$scope module fullAdder_inst $end
$var wire 1 P" carry_in $end
$var wire 1 Q" carry_out $end
$var wire 1 R" in_1 $end
$var wire 1 S" in_2 $end
$var wire 1 T" sum $end
$upscope $end
$upscope $end
$scope begin adder_bit[8] $end
$scope module fullAdder_inst $end
$var wire 1 U" carry_in $end
$var wire 1 V" carry_out $end
$var wire 1 W" in_1 $end
$var wire 1 X" in_2 $end
$var wire 1 Y" sum $end
$upscope $end
$upscope $end
$scope begin adder_bit[9] $end
$scope module fullAdder_inst $end
$var wire 1 Z" carry_in $end
$var wire 1 [" carry_out $end
$var wire 1 \" in_1 $end
$var wire 1 ]" in_2 $end
$var wire 1 ^" sum $end
$upscope $end
$upscope $end
$scope begin adder_bit[10] $end
$scope module fullAdder_inst $end
$var wire 1 _" carry_in $end
$var wire 1 `" carry_out $end
$var wire 1 a" in_1 $end
$var wire 1 b" in_2 $end
$var wire 1 c" sum $end
$upscope $end
$upscope $end
$scope begin adder_bit[11] $end
$scope module fullAdder_inst $end
$var wire 1 d" carry_in $end
$var wire 1 e" carry_out $end
$var wire 1 f" in_1 $end
$var wire 1 g" in_2 $end
$var wire 1 h" sum $end
$upscope $end
$upscope $end
$scope begin adder_bit[12] $end
$scope module fullAdder_inst $end
$var wire 1 i" carry_in $end
$var wire 1 j" carry_out $end
$var wire 1 k" in_1 $end
$var wire 1 l" in_2 $end
$var wire 1 m" sum $end
$upscope $end
$upscope $end
$scope begin adder_bit[13] $end
$scope module fullAdder_inst $end
$var wire 1 n" carry_in $end
$var wire 1 o" carry_out $end
$var wire 1 p" in_1 $end
$var wire 1 q" in_2 $end
$var wire 1 r" sum $end
$upscope $end
$upscope $end
$scope begin adder_bit[14] $end
$scope module fullAdder_inst $end
$var wire 1 s" carry_in $end
$var wire 1 t" carry_out $end
$var wire 1 u" in_1 $end
$var wire 1 v" in_2 $end
$var wire 1 w" sum $end
$upscope $end
$upscope $end
$scope begin adder_bit[15] $end
$scope module fullAdder_inst $end
$var wire 1 x" carry_in $end
$var wire 1 y" carry_out $end
$var wire 1 z" in_1 $end
$var wire 1 {" in_2 $end
$var wire 1 |" sum $end
$upscope $end
$upscope $end
$upscope $end
$upscope $end
$scope module carrySave_inst2 $end
$var wire 18 }" carry_in [17:0] $end
$var wire 18 ~" in_1 [17:0] $end
$var wire 18 !# in_2 [17:0] $end
$var wire 18 "# sum_int [17:0] $end
$var wire 19 ## sum [18:0] $end
$var wire 1 $# carry_out $end
$var wire 18 %# carry_int [17:0] $end
$scope begin adder_bit[0] $end
$scope module fullAdder_inst $end
$var wire 1 &# carry_in $end
$var wire 1 '# carry_out $end
$var wire 1 (# in_1 $end
$var wire 1 )# in_2 $end
$var wire 1 *# sum $end
$upscope $end
$upscope $end
$scope begin adder_bit[1] $end
$scope module fullAdder_inst $end
$var wire 1 +# carry_in $end
$var wire 1 ,# carry_out $end
$var wire 1 -# in_1 $end
$var wire 1 .# in_2 $end
$var wire 1 /# sum $end
$upscope $end
$upscope $end
$scope begin adder_bit[2] $end
$scope module fullAdder_inst $end
$var wire 1 0# carry_in $end
$var wire 1 1# carry_out $end
$var wire 1 2# in_1 $end
$var wire 1 3# in_2 $end
$var wire 1 4# sum $end
$upscope $end
$upscope $end
$scope begin adder_bit[3] $end
$scope module fullAdder_inst $end
$var wire 1 5# carry_in $end
$var wire 1 6# carry_out $end
$var wire 1 7# in_1 $end
$var wire 1 8# in_2 $end
$var wire 1 9# sum $end
$upscope $end
$upscope $end
$scope begin adder_bit[4] $end
$scope module fullAdder_inst $end
$var wire 1 :# carry_in $end
$var wire 1 ;# carry_out $end
$var wire 1 <# in_1 $end
$var wire 1 =# in_2 $end
$var wire 1 ># sum $end
$upscope $end
$upscope $end
$scope begin adder_bit[5] $end
$scope module fullAdder_inst $end
$var wire 1 ?# carry_in $end
$var wire 1 @# carry_out $end
$var wire 1 A# in_1 $end
$var wire 1 B# in_2 $end
$var wire 1 C# sum $end
$upscope $end
$upscope $end
$scope begin adder_bit[6] $end
$scope module fullAdder_inst $end
$var wire 1 D# carry_in $end
$var wire 1 E# carry_out $end
$var wire 1 F# in_1 $end
$var wire 1 G# in_2 $end
$var wire 1 H# sum $end
$upscope $end
$upscope $end
$scope begin adder_bit[7] $end
$scope module fullAdder_inst $end
$var wire 1 I# carry_in $end
$var wire 1 J# carry_out $end
$var wire 1 K# in_1 $end
$var wire 1 L# in_2 $end
$var wire 1 M# sum $end
$upscope $end
$upscope $end
$scope begin adder_bit[8] $end
$scope module fullAdder_inst $end
$var wire 1 N# carry_in $end
$var wire 1 O# carry_out $end
$var wire 1 P# in_1 $end
$var wire 1 Q# in_2 $end
$var wire 1 R# sum $end
$upscope $end
$upscope $end
$scope begin adder_bit[9] $end
$scope module fullAdder_inst $end
$var wire 1 S# carry_in $end
$var wire 1 T# carry_out $end
$var wire 1 U# in_1 $end
$var wire 1 V# in_2 $end
$var wire 1 W# sum $end
$upscope $end
$upscope $end
$scope begin adder_bit[10] $end
$scope module fullAdder_inst $end
$var wire 1 X# carry_in $end
$var wire 1 Y# carry_out $end
$var wire 1 Z# in_1 $end
$var wire 1 [# in_2 $end
$var wire 1 \# sum $end
$upscope $end
$upscope $end
$scope begin adder_bit[11] $end
$scope module fullAdder_inst $end
$var wire 1 ]# carry_in $end
$var wire 1 ^# carry_out $end
$var wire 1 _# in_1 $end
$var wire 1 `# in_2 $end
$var wire 1 a# sum $end
$upscope $end
$upscope $end
$scope begin adder_bit[12] $end
$scope module fullAdder_inst $end
$var wire 1 b# carry_in $end
$var wire 1 c# carry_out $end
$var wire 1 d# in_1 $end
$var wire 1 e# in_2 $end
$var wire 1 f# sum $end
$upscope $end
$upscope $end
$scope begin adder_bit[13] $end
$scope module fullAdder_inst $end
$var wire 1 g# carry_in $end
$var wire 1 h# carry_out $end
$var wire 1 i# in_1 $end
$var wire 1 j# in_2 $end
$var wire 1 k# sum $end
$upscope $end
$upscope $end
$scope begin adder_bit[14] $end
$scope module fullAdder_inst $end
$var wire 1 l# carry_in $end
$var wire 1 m# carry_out $end
$var wire 1 n# in_1 $end
$var wire 1 o# in_2 $end
$var wire 1 p# sum $end
$upscope $end
$upscope $end
$scope begin adder_bit[15] $end
$scope module fullAdder_inst $end
$var wire 1 q# carry_in $end
$var wire 1 r# carry_out $end
$var wire 1 s# in_1 $end
$var wire 1 t# in_2 $end
$var wire 1 u# sum $end
$upscope $end
$upscope $end
$scope begin adder_bit[16] $end
$scope module fullAdder_inst $end
$var wire 1 v# carry_in $end
$var wire 1 w# carry_out $end
$var wire 1 x# in_1 $end
$var wire 1 y# in_2 $end
$var wire 1 z# sum $end
$upscope $end
$upscope $end
$scope begin adder_bit[17] $end
$scope module fullAdder_inst $end
$var wire 1 {# carry_in $end
$var wire 1 |# carry_out $end
$var wire 1 }# in_1 $end
$var wire 1 ~# in_2 $end
$var wire 1 !$ sum $end
$upscope $end
$upscope $end
$scope module rippleCarry_inst $end
$var wire 1 "$ carry_in $end
$var wire 18 #$ in_1 [17:0] $end
$var wire 18 $$ in_2 [17:0] $end
$var wire 18 %$ sum [17:0] $end
$var wire 1 $# carry_out $end
$var wire 19 &$ carry_int [18:0] $end
$scope begin adder_bit[0] $end
$scope module fullAdder_inst $end
$var wire 1 '$ carry_in $end
$var wire 1 ($ carry_out $end
$var wire 1 )$ in_1 $end
$var wire 1 *$ in_2 $end
$var wire 1 +$ sum $end
$upscope $end
$upscope $end
$scope begin adder_bit[1] $end
$scope module fullAdder_inst $end
$var wire 1 ,$ carry_in $end
$var wire 1 -$ carry_out $end
$var wire 1 .$ in_1 $end
$var wire 1 /$ in_2 $end
$var wire 1 0$ sum $end
$upscope $end
$upscope $end
$scope begin adder_bit[2] $end
$scope module fullAdder_inst $end
$var wire 1 1$ carry_in $end
$var wire 1 2$ carry_out $end
$var wire 1 3$ in_1 $end
$var wire 1 4$ in_2 $end
$var wire 1 5$ sum $end
$upscope $end
$upscope $end
$scope begin adder_bit[3] $end
$scope module fullAdder_inst $end
$var wire 1 6$ carry_in $end
$var wire 1 7$ carry_out $end
$var wire 1 8$ in_1 $end
$var wire 1 9$ in_2 $end
$var wire 1 :$ sum $end
$upscope $end
$upscope $end
$scope begin adder_bit[4] $end
$scope module fullAdder_inst $end
$var wire 1 ;$ carry_in $end
$var wire 1 <$ carry_out $end
$var wire 1 =$ in_1 $end
$var wire 1 >$ in_2 $end
$var wire 1 ?$ sum $end
$upscope $end
$upscope $end
$scope begin adder_bit[5] $end
$scope module fullAdder_inst $end
$var wire 1 @$ carry_in $end
$var wire 1 A$ carry_out $end
$var wire 1 B$ in_1 $end
$var wire 1 C$ in_2 $end
$var wire 1 D$ sum $end
$upscope $end
$upscope $end
$scope begin adder_bit[6] $end
$scope module fullAdder_inst $end
$var wire 1 E$ carry_in $end
$var wire 1 F$ carry_out $end
$var wire 1 G$ in_1 $end
$var wire 1 H$ in_2 $end
$var wire 1 I$ sum $end
$upscope $end
$upscope $end
$scope begin adder_bit[7] $end
$scope module fullAdder_inst $end
$var wire 1 J$ carry_in $end
$var wire 1 K$ carry_out $end
$var wire 1 L$ in_1 $end
$var wire 1 M$ in_2 $end
$var wire 1 N$ sum $end
$upscope $end
$upscope $end
$scope begin adder_bit[8] $end
$scope module fullAdder_inst $end
$var wire 1 O$ carry_in $end
$var wire 1 P$ carry_out $end
$var wire 1 Q$ in_1 $end
$var wire 1 R$ in_2 $end
$var wire 1 S$ sum $end
$upscope $end
$upscope $end
$scope begin adder_bit[9] $end
$scope module fullAdder_inst $end
$var wire 1 T$ carry_in $end
$var wire 1 U$ carry_out $end
$var wire 1 V$ in_1 $end
$var wire 1 W$ in_2 $end
$var wire 1 X$ sum $end
$upscope $end
$upscope $end
$scope begin adder_bit[10] $end
$scope module fullAdder_inst $end
$var wire 1 Y$ carry_in $end
$var wire 1 Z$ carry_out $end
$var wire 1 [$ in_1 $end
$var wire 1 \$ in_2 $end
$var wire 1 ]$ sum $end
$upscope $end
$upscope $end
$scope begin adder_bit[11] $end
$scope module fullAdder_inst $end
$var wire 1 ^$ carry_in $end
$var wire 1 _$ carry_out $end
$var wire 1 `$ in_1 $end
$var wire 1 a$ in_2 $end
$var wire 1 b$ sum $end
$upscope $end
$upscope $end
$scope begin adder_bit[12] $end
$scope module fullAdder_inst $end
$var wire 1 c$ carry_in $end
$var wire 1 d$ carry_out $end
$var wire 1 e$ in_1 $end
$var wire 1 f$ in_2 $end
$var wire 1 g$ sum $end
$upscope $end
$upscope $end
$scope begin adder_bit[13] $end
$scope module fullAdder_inst $end
$var wire 1 h$ carry_in $end
$var wire 1 i$ carry_out $end
$var wire 1 j$ in_1 $end
$var wire 1 k$ in_2 $end
$var wire 1 l$ sum $end
$upscope $end
$upscope $end
$scope begin adder_bit[14] $end
$scope module fullAdder_inst $end
$var wire 1 m$ carry_in $end
$var wire 1 n$ carry_out $end
$var wire 1 o$ in_1 $end
$var wire 1 p$ in_2 $end
$var wire 1 q$ sum $end
$upscope $end
$upscope $end
$scope begin adder_bit[15] $end
$scope module fullAdder_inst $end
$var wire 1 r$ carry_in $end
$var wire 1 s$ carry_out $end
$var wire 1 t$ in_1 $end
$var wire 1 u$ in_2 $end
$var wire 1 v$ sum $end
$upscope $end
$upscope $end
$scope begin adder_bit[16] $end
$scope module fullAdder_inst $end
$var wire 1 w$ carry_in $end
$var wire 1 x$ carry_out $end
$var wire 1 y$ in_1 $end
$var wire 1 z$ in_2 $end
$var wire 1 {$ sum $end
$upscope $end
$upscope $end
$scope begin adder_bit[17] $end
$scope module fullAdder_inst $end
$var wire 1 |$ carry_in $end
$var wire 1 }$ carry_out $end
$var wire 1 ~$ in_1 $end
$var wire 1 !% in_2 $end
$var wire 1 "% sum $end
$upscope $end
$upscope $end
$upscope $end
$upscope $end
$scope begin input_delay $end
$upscope $end
$upscope $end
$scope begin in_delay $end
$upscope $end
$upscope $end
$scope module fir4TapTestBench $end
$var reg 16 #% \in_temp[0] [15:0] $end
$upscope $end
$scope module fir4TapTestBench $end
$scope module firTap_inst $end
$var reg 16 $% \in_temp[0] [15:0] $end
$upscope $end
$upscope $end
$scope module fir4TapTestBench $end
$var reg 16 %% \in_temp[1] [15:0] $end
$upscope $end
$scope module fir4TapTestBench $end
$scope module firTap_inst $end
$var reg 16 &% \in_temp[1] [15:0] $end
$upscope $end
$upscope $end
$scope module fir4TapTestBench $end
$var reg 16 '% \in_temp[2] [15:0] $end
$upscope $end
$scope module fir4TapTestBench $end
$scope module firTap_inst $end
$var reg 16 (% \in_temp[2] [15:0] $end
$upscope $end
$upscope $end
$scope module fir4TapTestBench $end
$var reg 16 )% \in_temp[3] [15:0] $end
$upscope $end
$scope module fir4TapTestBench $end
$scope module firTap_inst $end
$var reg 16 *% \in_temp[3] [15:0] $end
$upscope $end
$upscope $end
$enddefinitions $end
#0
$dumpvars
bx *%
bx )%
bx (%
bx '%
bx &%
bx %%
bx $%
bx #%
x"%
0!%
0~$
0}$
x|$
x{$
xz$
0y$
xx$
xw$
xv$
xu$
xt$
xs$
xr$
xq$
xp$
xo$
xn$
xm$
xl$
xk$
xj$
xi$
xh$
xg$
xf$
xe$
xd$
xc$
xb$
xa$
x`$
x_$
x^$
x]$
x\$
x[$
xZ$
xY$
xX$
xW$
xV$
xU$
xT$
xS$
xR$
xQ$
xP$
xO$
xN$
xM$
xL$
xK$
xJ$
xI$
xH$
xG$
xF$
xE$
xD$
xC$
xB$
xA$
x@$
x?$
x>$
x=$
x<$
x;$
x:$
x9$
x8$
x7$
x6$
x5$
x4$
x3$
x2$
x1$
x0$
x/$
x.$
x-$
x,$
x+$
x*$
x)$
x($
0'$
b0xxxxxxxxxxxxxxxxx0 &$
bx %$
b0xxxxxxxxxxxxxxxxx $$
b0xxxxxxxxxxxxxxxx #$
0"$
x!$
x~#
0}#
0|#
0{#
xz#
xy#
0x#
0w#
0v#
xu#
xt#
xs#
xr#
0q#
xp#
xo#
xn#
xm#
0l#
xk#
xj#
xi#
xh#
0g#
xf#
xe#
xd#
xc#
0b#
xa#
x`#
x_#
x^#
0]#
x\#
x[#
xZ#
xY#
0X#
xW#
xV#
xU#
xT#
0S#
xR#
xQ#
xP#
xO#
0N#
xM#
xL#
xK#
xJ#
0I#
xH#
xG#
xF#
xE#
0D#
xC#
xB#
xA#
x@#
0?#
x>#
x=#
x<#
x;#
0:#
x9#
x8#
x7#
x6#
05#
x4#
x3#
x2#
x1#
00#
x/#
x.#
x-#
x,#
0+#
x*#
x)#
x(#
x'#
0&#
b0xxxxxxxxxxxxxxxx %#
0$#
bx ##
bx "#
bx !#
b0xxxxxxxxxxxxxxxx ~"
b0 }"
x|"
0{"
xz"
xy"
xx"
xw"
xv"
xu"
xt"
xs"
xr"
xq"
xp"
xo"
xn"
xm"
xl"
xk"
xj"
xi"
xh"
xg"
xf"
xe"
xd"
xc"
xb"
xa"
x`"
x_"
x^"
x]"
x\"
x["
xZ"
xY"
xX"
xW"
xV"
xU"
xT"
xS"
xR"
xQ"
xP"
xO"
xN"
xM"
xL"
xK"
xJ"
xI"
xH"
xG"
xF"
xE"
xD"
xC"
xB"
xA"
x@"
x?"
x>"
x="
x<"
x;"
x:"
x9"
x8"
x7"
x6"
x5"
x4"
x3"
x2"
x1"
x0"
x/"
x."
0-"
bx0 ,"
bx +"
b0xxxxxxxxxxxxxxx *"
bx )"
0("
x'"
x&"
x%"
x$"
x#"
x""
x!"
x~
x}
x|
x{
xz
xy
xx
xw
xv
xu
xt
xs
xr
xq
xp
xo
xn
xm
xl
xk
xj
xi
xh
xg
xf
xe
xd
xc
xb
xa
x`
x_
x^
x]
x\
x[
xZ
xY
xX
xW
xV
xU
xT
xS
xR
xQ
xP
xO
xN
xM
xL
xK
xJ
xI
xH
xG
xF
xE
xD
xC
xB
xA
x@
x?
x>
x=
x<
x;
x:
x9
x8
x7
x6
bx 5
bx 4
bx 3
bx 2
bx 1
bx 0
bx /
bx .
x-
bx ,
bx +
bx *
b100 )
bx (
0'
0&
bx %
0$
bx #
x"
bx !
$end
#500
08
0=
0B
0G
0L
0Q
0V
0[
0`
0e
0j
0o
0t
0y
0~
0%"
bx *%
bx (%
bx &%
bx0 .
b0 $%
b0 1
bx )%
bx '%
bx %%
bx #%
b100 /
b100 (
1$
#1000
0$
#1500
0u$
0z#
0y#
b0xxxxxxxxxxxxxxxx +
b0xxxxxxxxxxxxxxxx 4
b0xxxxxxxxxxxxxxx +"
0|"
0x"
0t"
0s"
0o"
0n"
0j"
0i"
0e"
0d"
0`"
0_"
0["
0Z"
0V"
0U"
0Q"
0P"
0L"
0K"
0G"
0F"
0B"
0A"
0="
b0xxxxxxxxxxxxxxxxxx ##
b0xxxxxxxxxxxxxxxxx %$
0"%
0<"
0|$
08"
b0xxxxxxxxxxxxxxxx0 &$
0x$
07"
0z$
03"
b0xxxxxxxxxxxxxxx $$
b0xxxxxxxxxxxxxxxx "#
0!$
02"
0~#
0."
b0xxxxxxxxxxxxxxxx !#
0-
b0 ,"
0y"
0/"
04"
09"
0>"
0C"
0H"
0M"
0R"
0W"
0\"
0a"
0f"
0k"
0p"
0u"
0z"
07
0<
0A
0F
0K
0P
0U
0Z
0_
0d
0i
0n
0s
0x
0}
b0 5
b0 )"
0$"
09
0>
0C
0H
0M
0R
0W
0\
0a
0f
0k
0p
0u
0z
0!"
0&"
bx *%
bx (%
bx00 .
b0 &%
b0 2
b0 $%
bx )%
bx '%
bx %%
bx #%
b100 /
b100 (
1$
#2000
0$
1'
#2500
bx )%
bx '%
bx %%
bx #%
0:$
0?$
0D$
0I$
0N$
0S$
0X$
0]$
0b$
0g$
0l$
0q$
0v$
06$
0;$
0@$
0E$
0J$
0O$
0T$
0Y$
0^$
0c$
0h$
0m$
0r$
05$
02$
07$
0<$
0A$
0F$
0K$
0P$
0U$
0Z$
0_$
0d$
0i$
0n$
01$
0+$
00$
0-$
0*$
0/$
04$
09$
0>$
0C$
0H$
0M$
0R$
0W$
0\$
0a$
0f$
0k$
0p$
b0 $$
0,$
b0 %$
0{$
0/#
04#
09#
0>#
0C#
0H#
0M#
0R#
0W#
0\#
0a#
0f#
0k#
0p#
0u#
0($
0w$
b0 #
b0 ,
b0 &$
0s$
b0 ##
0.#
03#
08#
0=#
0B#
0G#
0L#
0Q#
0V#
0[#
0`#
0e#
0j#
0o#
0t#
b0 "#
0*#
01"
06"
0;"
0@"
0E"
0J"
0O"
0T"
0Y"
0^"
0c"
0h"
0m"
0r"
b0 +"
0w"
0)$
0.$
03$
08$
0=$
0B$
0G$
0L$
0Q$
0V$
0[$
0`$
0e$
0j$
0o$
0t$
0'#
0,#
01#
06#
0;#
0@#
0E#
0J#
0O#
0T#
0Y#
0^#
0c#
0h#
0m#
b0 %#
b0 #$
0r#
0)#
00"
05"
0:"
0?"
0D"
0I"
0N"
0S"
0X"
0]"
0b"
0g"
0l"
0q"
0v"
b0 !#
b0 +
b0 4
b0 *"
0:
0?
0D
0I
0N
0S
0X
0]
0b
0g
0l
0q
0v
0{
0""
b0 3
0'"
0(#
0-#
02#
07#
0<#
0A#
0F#
0K#
0P#
0U#
0Z#
0_#
0d#
0i#
0n#
0s#
06
0;
0@
0E
0J
0O
0T
0Y
0^
0c
0h
0m
0r
0w
0|
0#"
b0 *%
b0 ~"
b0 (%
b0 0
b0 &%
b0 $%
b100 /
b100 (
1$
#3000
0$
0'
#3500
b0 *%
bx000 .
b0 (%
b0 &%
b0 $%
bx )%
bx '%
bx %%
bx #%
b100 /
b100 (
1$
#4000
0$
1&
b11010100100100 %
b11010100100100 *
#4500
b11010100100100 #
b11010100100100 ,
10$
1?$
1N$
1X$
1b$
b11010100100100 ##
b1101010010010 %$
1g$
1/$
1>$
1M$
1W$
1a$
1f$
b1101010010010 $$
14#
1C#
1R#
1\#
1f#
b11010100100100 "#
1k#
13#
1B#
1Q#
1[#
1e#
1j#
16"
1E"
1T"
1^"
1h"
b11010100100100 !#
b11010100100100 +
b11010100100100 4
b1101010010010 +"
1m"
15"
1D"
1S"
1]"
1g"
1l"
b1101010010010 *"
1D
1S
1b
1l
1v
b11010100100100 3
1{
0"
1B
1Q
1`
1j
1t
1y
b0 *%
b0 (%
b0 &%
b1 .
b11010100100100 $%
b11010100100100 1
bx )%
bx '%
bx %%
b11010100100100 #%
b100 /
b100 (
1$
#5000
0$
b101111010000001 %
b101111010000001 *
#5500
1q$
1p$
1u#
1t#
1w"
1I$
1S$
0X$
1b$
0g$
b100100111010010 %$
0l$
1s"
1o"
1H$
1R$
0W$
1a$
0f$
0k$
b100100111010010 $$
0k#
1M#
1W#
0\#
1f#
0p#
1n"
b1001001110100101 #
b1001001110100101 ,
1d"
0j#
1j"
b1001001110100101 ##
1L#
1V#
0[#
b110100000000000 ,"
1`"
1e#
0o#
0m"
b1001001110100101 "#
1*#
1O"
1Y"
0^"
1h"
b100100111010010 +"
0r"
1a"
1k"
1)#
1N"
1X"
0]"
1b"
0g"
1q"
1i
b1010000000000 5
b1010000000000 )"
1s
b1001001110100101 !#
b1001001110100101 +
b1001001110100101 4
b11010111010010 *"
0l
0v
1:
1]
1g
1q
b110101110100101 3
1""
1C
1R
1a
1k
1u
1z
18
0B
0Q
1[
0`
1e
1o
0y
1~
b0 *%
b0 (%
b11 .
b11010100100100 &%
b11010100100100 2
b101111010000001 $%
b101111010000001 1
bx )%
bx '%
b11010100100100 %%
b101111010000001 #%
b100 /
b100 (
1$
#6000
0$
b1101011000001001 %
b1101011000001001 *
#6500
1]$
1g$
0q$
1v$
1\$
1f$
0p$
1u$
1+$
15$
0S$
0b$
b1011010011010111 %$
1l$
1a#
1k#
0u#
1z#
1*$
14$
0R$
0a$
1k$
1`#
1j#
b1011010011010111 $$
0t#
1/#
1y#
19#
0W#
1c"
0f#
1m"
1p#
0w"
b10110100110101110 #
b10110100110101110 ,
1|"
1_"
1i"
0s"
b10110100110101110 ##
1.#
1x"
18#
0V#
1["
0e#
1e"
1o#
0o"
b10110100110101110 "#
0*#
11"
b1011110000000000 ,"
1t"
1;"
0Y"
0h"
b1011010011010111 +"
1r"
0)#
1/"
1\"
1u"
1:"
0X"
1]"
1g"
0q"
1v"
b10110100110101110 !#
b10110100110101110 +
b10110100110101110 4
17
1d
b101011000000001 5
b101011000000001 )"
1}
b101111011010110 *"
0:
0g
0""
1I
1'"
1l
b1011110110101100 3
1v
1@
1O
1^
1h
1r
1w
19
0C
0R
1\
0a
1f
1p
0z
1!"
1G
0[
0o
1%"
b0 *%
b111 .
b11010100100100 (%
b11010100100100 0
b101111010000001 &%
b101111010000001 2
b1101011000001001 $%
b1101011000001001 1
bx )%
b11010100100100 '%
b101111010000001 %%
b1101011000001001 #%
b100 /
b100 (
1$
#7000
0$
b101011001100011 %
b101011001100011 *
